<?xml version="1.0" encoding="UTF-8" standalone="no"?>
<svg
   xmlns:dc="http://purl.org/dc/elements/1.1/"
   xmlns:cc="http://creativecommons.org/ns#"
   xmlns:rdf="http://www.w3.org/1999/02/22-rdf-syntax-ns#"
   xmlns:svg="http://www.w3.org/2000/svg"
   xmlns="http://www.w3.org/2000/svg"
   xmlns:sodipodi="http://sodipodi.sourceforge.net/DTD/sodipodi-0.dtd"
   xmlns:inkscape="http://www.inkscape.org/namespaces/inkscape"
   style="font-style:normal;font-weight:normal;font-size:12px;font-family:Dialog;color-interpolation:auto;fill:#000000;fill-opacity:1;stroke:#000000;stroke-width:1;stroke-linecap:square;stroke-linejoin:miter;stroke-miterlimit:10;stroke-dasharray:none;stroke-dashoffset:0;stroke-opacity:1;color-rendering:auto;image-rendering:auto;shape-rendering:auto;text-rendering:auto"
   width="402.31052"
   height="349.6579"
   version="1.1"
   id="svg9156"
   sodipodi:docname="linearSaturation2.svg"
   inkscape:version="1.0.1 (3bc2e813f5, 2020-09-07)">
  <metadata
     id="metadata9160">
    <rdf:RDF>
      <cc:Work
         rdf:about="">
        <dc:format>image/svg+xml</dc:format>
        <dc:type
           rdf:resource="http://purl.org/dc/dcmitype/StillImage" />
        <dc:title></dc:title>
      </cc:Work>
    </rdf:RDF>
  </metadata>
  <sodipodi:namedview
     pagecolor="#ffffff"
     bordercolor="#666666"
     borderopacity="1"
     objecttolerance="10"
     gridtolerance="10"
     guidetolerance="10"
     inkscape:pageopacity="0"
     inkscape:pageshadow="2"
     inkscape:window-width="2560"
     inkscape:window-height="1377"
     id="namedview9158"
     showgrid="false"
     inkscape:measure-start="0,0"
     inkscape:measure-end="0,0"
     fit-margin-top="0"
     fit-margin-left="0"
     fit-margin-right="0"
     fit-margin-bottom="0"
     inkscape:zoom="1.6314199"
     inkscape:cx="215.72066"
     inkscape:cy="242.77545"
     inkscape:window-x="-8"
     inkscape:window-y="-8"
     inkscape:window-maximized="1"
     inkscape:current-layer="layer1"
     inkscape:document-rotation="0" />
  <!--Generated by the Batik Graphics2D SVG Generator-->
  <defs
     id="genericDefs">
    <marker
       inkscape:stockid="Arrow2Mend"
       orient="auto"
       refY="0"
       refX="0"
       id="Arrow2Mend"
       style="overflow:visible"
       inkscape:isstock="true">
      <path
         id="path9818"
         style="fill:#000000;fill-opacity:1;fill-rule:evenodd;stroke:#000000;stroke-width:0.625;stroke-linejoin:round;stroke-opacity:1"
         d="M 8.7185878,4.0337352 -2.2072895,0.01601326 8.7185884,-4.0017078 c -1.7454984,2.3720609 -1.7354408,5.6174519 -6e-7,8.035443 z"
         transform="scale(-0.6)"
         inkscape:connector-curvature="0" />
    </marker>
    <marker
       inkscape:stockid="Arrow2Mstart"
       orient="auto"
       refY="0"
       refX="0"
       id="Arrow2Mstart"
       style="overflow:visible"
       inkscape:isstock="true">
      <path
         id="path9815"
         style="fill:#000000;fill-opacity:1;fill-rule:evenodd;stroke:#000000;stroke-width:0.625;stroke-linejoin:round;stroke-opacity:1"
         d="M 8.7185878,4.0337352 -2.2072895,0.01601326 8.7185884,-4.0017078 c -1.7454984,2.3720609 -1.7354408,5.6174519 -6e-7,8.035443 z"
         transform="scale(0.6)"
         inkscape:connector-curvature="0" />
    </marker>
    <marker
       inkscape:stockid="Arrow2Mstart"
       orient="auto"
       refY="0"
       refX="0"
       id="Arrow2Mstart-6"
       style="overflow:visible"
       inkscape:isstock="true">
      <path
         inkscape:connector-curvature="0"
         id="path9815-2"
         style="fill:#000000;fill-opacity:1;fill-rule:evenodd;stroke:#000000;stroke-width:0.625;stroke-linejoin:round;stroke-opacity:1"
         d="M 8.7185878,4.0337352 -2.2072895,0.01601326 8.7185884,-4.0017078 c -1.7454984,2.3720609 -1.7354408,5.6174519 -6e-7,8.035443 z"
         transform="scale(0.6)" />
    </marker>
    <marker
       inkscape:stockid="Arrow2Mend"
       orient="auto"
       refY="0"
       refX="0"
       id="Arrow2Mend-9"
       style="overflow:visible"
       inkscape:isstock="true">
      <path
         inkscape:connector-curvature="0"
         id="path9818-1"
         style="fill:#000000;fill-opacity:1;fill-rule:evenodd;stroke:#000000;stroke-width:0.625;stroke-linejoin:round;stroke-opacity:1"
         d="M 8.7185878,4.0337352 -2.2072895,0.01601326 8.7185884,-4.0017078 c -1.7454984,2.3720609 -1.7354408,5.6174519 -6e-7,8.035443 z"
         transform="scale(-0.6)" />
    </marker>
    <clipPath
       clipPathUnits="userSpaceOnUse"
       id="clipPath1">
      <path
         inkscape:connector-curvature="0"
         d="M 0,0 H 662 V 372 H 0 Z"
         id="path8943" />
    </clipPath>
    <marker
       inkscape:stockid="Arrow2Mstart"
       orient="auto"
       refY="0"
       refX="0"
       id="Arrow2Mstart-9"
       style="overflow:visible"
       inkscape:isstock="true">
      <path
         inkscape:connector-curvature="0"
         id="path9815-20"
         style="fill:#000000;fill-opacity:1;fill-rule:evenodd;stroke:#000000;stroke-width:0.625;stroke-linejoin:round;stroke-opacity:1"
         d="M 8.7185878,4.0337352 -2.2072895,0.01601326 8.7185884,-4.0017078 c -1.7454984,2.3720609 -1.7354408,5.6174519 -6e-7,8.035443 z"
         transform="scale(0.6)" />
    </marker>
    <marker
       inkscape:stockid="Arrow2Mend"
       orient="auto"
       refY="0"
       refX="0"
       id="Arrow2Mend-2"
       style="overflow:visible"
       inkscape:isstock="true">
      <path
         inkscape:connector-curvature="0"
         id="path9818-3"
         style="fill:#000000;fill-opacity:1;fill-rule:evenodd;stroke:#000000;stroke-width:0.625;stroke-linejoin:round;stroke-opacity:1"
         d="M 8.7185878,4.0337352 -2.2072895,0.01601326 8.7185884,-4.0017078 c -1.7454984,2.3720609 -1.7354408,5.6174519 -6e-7,8.035443 z"
         transform="scale(-0.6)" />
    </marker>
    <marker
       inkscape:stockid="Arrow2Mstart"
       orient="auto"
       refY="0"
       refX="0"
       id="Arrow2Mstart-6-7"
       style="overflow:visible"
       inkscape:isstock="true">
      <path
         inkscape:connector-curvature="0"
         id="path9815-2-5"
         style="fill:#000000;fill-opacity:1;fill-rule:evenodd;stroke:#000000;stroke-width:0.625;stroke-linejoin:round;stroke-opacity:1"
         d="M 8.7185878,4.0337352 -2.2072895,0.01601326 8.7185884,-4.0017078 c -1.7454984,2.3720609 -1.7354408,5.6174519 -6e-7,8.035443 z"
         transform="scale(0.6)" />
    </marker>
    <marker
       inkscape:stockid="Arrow2Mend"
       orient="auto"
       refY="0"
       refX="0"
       id="Arrow2Mend-9-9"
       style="overflow:visible"
       inkscape:isstock="true">
      <path
         inkscape:connector-curvature="0"
         id="path9818-1-2"
         style="fill:#000000;fill-opacity:1;fill-rule:evenodd;stroke:#000000;stroke-width:0.625;stroke-linejoin:round;stroke-opacity:1"
         d="M 8.7185878,4.0337352 -2.2072895,0.01601326 8.7185884,-4.0017078 c -1.7454984,2.3720609 -1.7354408,5.6174519 -6e-7,8.035443 z"
         transform="scale(-0.6)" />
    </marker>
    <clipPath
       clipPathUnits="userSpaceOnUse"
       id="clipPath12940">
      <path
         inkscape:connector-curvature="0"
         d="M 0,0 H 662 V 372 H 0 Z"
         id="path12938" />
    </clipPath>
    <font
       vert-adv-y="90"
       vert-origin-y="90"
       vert-origin-x="45"
       horiz-origin-y="0"
       horiz-origin-x="0"
       horiz-adv-x="60.009766"
       id="font1">
      <font-face
         ascent="92.822266"
         descent="23.583984"
         units-per-em="100"
         style="font-style:normal; font-family:SansSerif; font-weight:normal;"
         id="font-face8946" />
      <missing-glyph
         horiz-adv-x="60.009766"
         d="M4.9844 -17.6719 L4.9844 70.5156 L54.9844 70.5156 L54.9844 -17.6719 L4.9844 -17.6719 ZM10.5938 -12.1094 L49.4219 -12.1094 L49.4219 64.8906 L10.5938 64.8906 L10.5938 -12.1094 Z"
         id="missing-glyph8948" />
      <glyph
         unicode="0"
         horiz-adv-x="63.623047"
         d="M31.7812 66.4062 Q24.1719 66.4062 20.3359 58.9141 Q16.5 51.4219 16.5 36.375 Q16.5 21.3906 20.3359 13.8906 Q24.1719 6.3906 31.7812 6.3906 Q39.4531 6.3906 43.2891 13.8906 Q47.125 21.3906 47.125 36.375 Q47.125 51.4219 43.2891 58.9141 Q39.4531 66.4062 31.7812 66.4062 ZM31.7812 74.2188 Q44.0469 74.2188 50.5156 64.5234 Q56.9844 54.8281 56.9844 36.375 Q56.9844 17.9688 50.5156 8.2734 Q44.0469 -1.4219 31.7812 -1.4219 Q19.5312 -1.4219 13.0625 8.2734 Q6.5938 17.9688 6.5938 36.375 Q6.5938 54.8281 13.0625 64.5234 Q19.5312 74.2188 31.7812 74.2188 Z"
         id="glyph8950" />
      <glyph
         unicode="2"
         horiz-adv-x="63.623047"
         d="M19.1875 8.2969 L53.6094 8.2969 L53.6094 0 L7.3281 0 L7.3281 8.2969 Q12.9375 14.1094 22.6328 23.8984 Q32.3281 33.6875 34.8125 36.5312 Q39.5469 41.8438 41.4297 45.5312 Q43.3125 49.2188 43.3125 52.7812 Q43.3125 58.5938 39.2344 62.2578 Q35.1562 65.9219 28.6094 65.9219 Q23.9688 65.9219 18.8203 64.3125 Q13.6719 62.7031 7.8125 59.4219 L7.8125 69.3906 Q13.7656 71.7812 18.9453 73 Q24.125 74.2188 28.4219 74.2188 Q39.75 74.2188 46.4844 68.5547 Q53.2188 62.8906 53.2188 53.4219 Q53.2188 48.9219 51.5391 44.8984 Q49.8594 40.875 45.4062 35.4062 Q44.1875 33.9844 37.6484 27.2188 Q31.1094 20.4531 19.1875 8.2969 Z"
         id="glyph8952" />
      <glyph
         unicode="4"
         horiz-adv-x="63.623047"
         d="M37.7969 64.3125 L12.8906 25.3906 L37.7969 25.3906 L37.7969 64.3125 ZM35.2031 72.9062 L47.6094 72.9062 L47.6094 25.3906 L58.0156 25.3906 L58.0156 17.1875 L47.6094 17.1875 L47.6094 0 L37.7969 0 L37.7969 17.1875 L4.8906 17.1875 L4.8906 26.7031 L35.2031 72.9062 Z"
         id="glyph8954" />
      <glyph
         unicode="6"
         horiz-adv-x="63.623047"
         d="M33.0156 40.375 Q26.375 40.375 22.4922 35.8359 Q18.6094 31.2969 18.6094 23.3906 Q18.6094 15.5312 22.4922 10.9609 Q26.375 6.3906 33.0156 6.3906 Q39.6562 6.3906 43.5312 10.9609 Q47.4062 15.5312 47.4062 23.3906 Q47.4062 31.2969 43.5312 35.8359 Q39.6562 40.375 33.0156 40.375 ZM52.5938 71.2969 L52.5938 62.3125 Q48.875 64.0625 45.0938 64.9922 Q41.3125 65.9219 37.5938 65.9219 Q27.8281 65.9219 22.6797 59.3281 Q17.5312 52.7344 16.7969 39.4062 Q19.6719 43.6562 24.0234 45.9219 Q28.375 48.1875 33.5938 48.1875 Q44.5781 48.1875 50.9531 41.5234 Q57.3281 34.8594 57.3281 23.3906 Q57.3281 12.1562 50.6875 5.3672 Q44.0469 -1.4219 33.0156 -1.4219 Q20.3594 -1.4219 13.6719 8.2734 Q6.9844 17.9688 6.9844 36.375 Q6.9844 53.6562 15.1875 63.9375 Q23.3906 74.2188 37.2031 74.2188 Q40.9219 74.2188 44.7031 73.4844 Q48.4844 72.75 52.5938 71.2969 Z"
         id="glyph8956" />
      <glyph
         unicode="8"
         horiz-adv-x="63.623047"
         d="M31.7812 34.625 Q24.75 34.625 20.7266 30.8594 Q16.7031 27.0938 16.7031 20.5156 Q16.7031 13.9219 20.7266 10.1562 Q24.75 6.3906 31.7812 6.3906 Q38.8125 6.3906 42.8672 10.1797 Q46.9219 13.9688 46.9219 20.5156 Q46.9219 27.0938 42.8984 30.8594 Q38.875 34.625 31.7812 34.625 ZM21.9219 38.8125 Q15.5781 40.375 12.0391 44.7266 Q8.5 49.0781 8.5 55.3281 Q8.5 64.0625 14.7266 69.1406 Q20.9531 74.2188 31.7812 74.2188 Q42.6719 74.2188 48.875 69.1406 Q55.0781 64.0625 55.0781 55.3281 Q55.0781 49.0781 51.5391 44.7266 Q48 40.375 41.7031 38.8125 Q48.8281 37.1562 52.8047 32.3203 Q56.7812 27.4844 56.7812 20.5156 Q56.7812 9.9062 50.3125 4.2422 Q43.8438 -1.4219 31.7812 -1.4219 Q19.7344 -1.4219 13.2578 4.2422 Q6.7812 9.9062 6.7812 20.5156 Q6.7812 27.4844 10.7891 32.3203 Q14.7969 37.1562 21.9219 38.8125 ZM18.3125 54.3906 Q18.3125 48.7344 21.8516 45.5625 Q25.3906 42.3906 31.7812 42.3906 Q38.1406 42.3906 41.7266 45.5625 Q45.3125 48.7344 45.3125 54.3906 Q45.3125 60.0625 41.7266 63.2344 Q38.1406 66.4062 31.7812 66.4062 Q25.3906 66.4062 21.8516 63.2344 Q18.3125 60.0625 18.3125 54.3906 Z"
         id="glyph8958" />
      <glyph
         unicode="1"
         horiz-adv-x="63.623047"
         d="M12.4062 8.2969 L28.5156 8.2969 L28.5156 63.9219 L10.9844 60.4062 L10.9844 69.3906 L28.4219 72.9062 L38.2812 72.9062 L38.2812 8.2969 L54.3906 8.2969 L54.3906 0 L12.4062 0 L12.4062 8.2969 Z"
         id="glyph8960" />
      <glyph
         unicode="o"
         horiz-adv-x="61.18164"
         d="M30.6094 48.3906 Q23.3906 48.3906 19.1875 42.75 Q14.9844 37.1094 14.9844 27.2969 Q14.9844 17.4844 19.1641 11.8438 Q23.3438 6.2031 30.6094 6.2031 Q37.7969 6.2031 41.9922 11.8672 Q46.1875 17.5312 46.1875 27.2969 Q46.1875 37.0156 41.9922 42.7031 Q37.7969 48.3906 30.6094 48.3906 ZM30.6094 56 Q42.3281 56 49.0234 48.3828 Q55.7188 40.7656 55.7188 27.2969 Q55.7188 13.875 49.0234 6.2266 Q42.3281 -1.4219 30.6094 -1.4219 Q18.8438 -1.4219 12.1797 6.2266 Q5.5156 13.875 5.5156 27.2969 Q5.5156 40.7656 12.1797 48.3828 Q18.8438 56 30.6094 56 Z"
         id="glyph8962" />
      <glyph
         unicode="n"
         horiz-adv-x="63.378906"
         d="M54.8906 33.0156 L54.8906 0 L45.9062 0 L45.9062 32.7188 Q45.9062 40.4844 42.875 44.3359 Q39.8438 48.1875 33.7969 48.1875 Q26.5156 48.1875 22.3125 43.5547 Q18.1094 38.9219 18.1094 30.9062 L18.1094 0 L9.0781 0 L9.0781 54.6875 L18.1094 54.6875 L18.1094 46.1875 Q21.3438 51.125 25.7109 53.5625 Q30.0781 56 35.7969 56 Q45.2188 56 50.0547 50.1719 Q54.8906 44.3438 54.8906 33.0156 Z"
         id="glyph8964" />
      <glyph
         unicode="i"
         horiz-adv-x="27.783203"
         d="M9.4219 54.6875 L18.4062 54.6875 L18.4062 0 L9.4219 0 L9.4219 54.6875 ZM9.4219 75.9844 L18.4062 75.9844 L18.4062 64.5938 L9.4219 64.5938 L9.4219 75.9844 Z"
         id="glyph8966" />
      <glyph
         unicode="x"
         horiz-adv-x="59.179688"
         d="M54.8906 54.6875 L35.1094 28.0781 L55.9062 0 L45.3125 0 L29.3906 21.4844 L13.4844 0 L2.875 0 L24.125 28.6094 L4.6875 54.6875 L15.2812 54.6875 L29.7812 35.2031 L44.2812 54.6875 L54.8906 54.6875 Z"
         id="glyph8968" />
      <glyph
         unicode="e"
         horiz-adv-x="61.523438"
         d="M56.2031 29.5938 L56.2031 25.2031 L14.8906 25.2031 Q15.4844 15.9219 20.4844 11.0625 Q25.4844 6.2031 34.4219 6.2031 Q39.5938 6.2031 44.4531 7.4688 Q49.3125 8.7344 54.1094 11.2812 L54.1094 2.7812 Q49.2656 0.7344 44.1875 -0.3438 Q39.1094 -1.4219 33.8906 -1.4219 Q20.7969 -1.4219 13.1562 6.1953 Q5.5156 13.8125 5.5156 26.8125 Q5.5156 40.2344 12.7656 48.1172 Q20.0156 56 32.3281 56 Q43.3594 56 49.7812 48.8984 Q56.2031 41.7969 56.2031 29.5938 ZM47.2188 32.2344 Q47.125 39.5938 43.0938 43.9922 Q39.0625 48.3906 32.4219 48.3906 Q24.9062 48.3906 20.3906 44.1406 Q15.875 39.8906 15.1875 32.1719 L47.2188 32.2344 Z"
         id="glyph8970" />
      <glyph
         unicode=" "
         horiz-adv-x="31.78711"
         d=""
         id="glyph8972" />
      <glyph
         unicode="l"
         horiz-adv-x="27.783203"
         d="M9.4219 75.9844 L18.4062 75.9844 L18.4062 0 L9.4219 0 L9.4219 75.9844 Z"
         id="glyph8974" />
      <glyph
         unicode="a"
         horiz-adv-x="61.279297"
         d="M34.2812 27.4844 Q23.3906 27.4844 19.1875 25 Q14.9844 22.5156 14.9844 16.5 Q14.9844 11.7188 18.1406 8.9141 Q21.2969 6.1094 26.7031 6.1094 Q34.1875 6.1094 38.7031 11.4062 Q43.2188 16.7031 43.2188 25.4844 L43.2188 27.4844 L34.2812 27.4844 ZM52.2031 31.2031 L52.2031 0 L43.2188 0 L43.2188 8.2969 Q40.1406 3.3281 35.5469 0.9531 Q30.9531 -1.4219 24.3125 -1.4219 Q15.9219 -1.4219 10.9609 3.2969 Q6 8.0156 6 15.9219 Q6 25.1406 12.1797 29.8281 Q18.3594 34.5156 30.6094 34.5156 L43.2188 34.5156 L43.2188 35.4062 Q43.2188 41.6094 39.1406 45 Q35.0625 48.3906 27.6875 48.3906 Q23 48.3906 18.5547 47.2656 Q14.1094 46.1406 10.0156 43.8906 L10.0156 52.2031 Q14.9375 54.1094 19.5781 55.0547 Q24.2188 56 28.6094 56 Q40.4844 56 46.3438 49.8516 Q52.2031 43.7031 52.2031 31.2031 Z"
         id="glyph8976" />
      <glyph
         unicode="u"
         horiz-adv-x="63.378906"
         d="M8.5 21.5781 L8.5 54.6875 L17.4844 54.6875 L17.4844 21.9219 Q17.4844 14.1562 20.5078 10.2734 Q23.5312 6.3906 29.5938 6.3906 Q36.8594 6.3906 41.0859 11.0312 Q45.3125 15.6719 45.3125 23.6875 L45.3125 54.6875 L54.2969 54.6875 L54.2969 0 L45.3125 0 L45.3125 8.4062 Q42.0469 3.4219 37.7266 1 Q33.4062 -1.4219 27.6875 -1.4219 Q18.2656 -1.4219 13.3828 4.4375 Q8.5 10.2969 8.5 21.5781 Z"
         id="glyph8978" />
      <glyph
         unicode="t"
         horiz-adv-x="39.208984"
         d="M18.3125 70.2188 L18.3125 54.6875 L36.8125 54.6875 L36.8125 47.7031 L18.3125 47.7031 L18.3125 18.0156 Q18.3125 11.3281 20.1406 9.4219 Q21.9688 7.5156 27.5938 7.5156 L36.8125 7.5156 L36.8125 0 L27.5938 0 Q17.1875 0 13.2344 3.8828 Q9.2812 7.7656 9.2812 18.0156 L9.2812 47.7031 L2.6875 47.7031 L2.6875 54.6875 L9.2812 54.6875 L9.2812 70.2188 L18.3125 70.2188 Z"
         id="glyph8980" />
      <glyph
         unicode="c"
         horiz-adv-x="54.98047"
         d="M48.7812 52.5938 L48.7812 44.1875 Q44.9688 46.2969 41.1406 47.3438 Q37.3125 48.3906 33.4062 48.3906 Q24.6562 48.3906 19.8203 42.8516 Q14.9844 37.3125 14.9844 27.2969 Q14.9844 17.2812 19.8203 11.7422 Q24.6562 6.2031 33.4062 6.2031 Q37.3125 6.2031 41.1406 7.25 Q44.9688 8.2969 48.7812 10.4062 L48.7812 2.0938 Q45.0156 0.3438 40.9922 -0.5391 Q36.9688 -1.4219 32.4219 -1.4219 Q20.0625 -1.4219 12.7891 6.3438 Q5.5156 14.1094 5.5156 27.2969 Q5.5156 40.6719 12.8672 48.3359 Q20.2188 56 33.0156 56 Q37.1562 56 41.1094 55.1484 Q45.0625 54.2969 48.7812 52.5938 Z"
         id="glyph8982" />
      <glyph
         unicode="A"
         horiz-adv-x="68.4082"
         d="M34.1875 63.1875 L20.7969 26.9062 L47.6094 26.9062 L34.1875 63.1875 ZM28.6094 72.9062 L39.7969 72.9062 L67.5781 0 L57.3281 0 L50.6875 18.7031 L17.8281 18.7031 L11.1875 0 L0.7812 0 L28.6094 72.9062 Z"
         id="glyph8984" />
      <glyph
         unicode="d"
         horiz-adv-x="63.476562"
         d="M45.4062 46.3906 L45.4062 75.9844 L54.3906 75.9844 L54.3906 0 L45.4062 0 L45.4062 8.2031 Q42.5781 3.3281 38.2578 0.9531 Q33.9375 -1.4219 27.875 -1.4219 Q17.9688 -1.4219 11.7422 6.4922 Q5.5156 14.4062 5.5156 27.2969 Q5.5156 40.1875 11.7422 48.0938 Q17.9688 56 27.875 56 Q33.9375 56 38.2578 53.6328 Q42.5781 51.2656 45.4062 46.3906 ZM14.7969 27.2969 Q14.7969 17.3906 18.875 11.75 Q22.9531 6.1094 30.0781 6.1094 Q37.2031 6.1094 41.3047 11.75 Q45.4062 17.3906 45.4062 27.2969 Q45.4062 37.2031 41.3047 42.8438 Q37.2031 48.4844 30.0781 48.4844 Q22.9531 48.4844 18.875 42.8438 Q14.7969 37.2031 14.7969 27.2969 Z"
         id="glyph8986" />
      <glyph
         unicode="r"
         horiz-adv-x="41.11328"
         d="M41.1094 46.2969 Q39.5938 47.1719 37.8125 47.5859 Q36.0312 48 33.8906 48 Q26.2656 48 22.1875 43.0469 Q18.1094 38.0938 18.1094 28.8125 L18.1094 0 L9.0781 0 L9.0781 54.6875 L18.1094 54.6875 L18.1094 46.1875 Q20.9531 51.1719 25.4922 53.5859 Q30.0312 56 36.5312 56 Q37.4531 56 38.5781 55.8828 Q39.7031 55.7656 41.0625 55.5156 L41.1094 46.2969 Z"
         id="glyph8988" />
      <glyph
         unicode="s"
         horiz-adv-x="52.09961"
         d="M44.2812 53.0781 L44.2812 44.5781 Q40.4844 46.5312 36.3828 47.5078 Q32.2812 48.4844 27.875 48.4844 Q21.1875 48.4844 17.8438 46.4375 Q14.5 44.3906 14.5 40.2812 Q14.5 37.1562 16.8906 35.375 Q19.2812 33.5938 26.5156 31.9844 L29.5938 31.2969 Q39.1562 29.25 43.1875 25.5156 Q47.2188 21.7812 47.2188 15.0938 Q47.2188 7.4688 41.1875 3.0234 Q35.1562 -1.4219 24.6094 -1.4219 Q20.2188 -1.4219 15.4531 -0.5625 Q10.6875 0.2969 5.4219 2 L5.4219 11.2812 Q10.4062 8.6875 15.2344 7.3984 Q20.0625 6.1094 24.8125 6.1094 Q31.1562 6.1094 34.5703 8.2812 Q37.9844 10.4531 37.9844 14.4062 Q37.9844 18.0625 35.5234 20.0156 Q33.0625 21.9688 24.7031 23.7812 L21.5781 24.5156 Q13.2344 26.2656 9.5234 29.9062 Q5.8125 33.5469 5.8125 39.8906 Q5.8125 47.6094 11.2812 51.8047 Q16.75 56 26.8125 56 Q31.7812 56 36.1797 55.2734 Q40.5781 54.5469 44.2812 53.0781 Z"
         id="glyph8990" />
      <glyph
         unicode="M"
         horiz-adv-x="86.2793"
         d="M9.8125 72.9062 L24.5156 72.9062 L43.1094 23.2969 L61.8125 72.9062 L76.5156 72.9062 L76.5156 0 L66.8906 0 L66.8906 64.0156 L48.0938 14.0156 L38.1875 14.0156 L19.3906 64.0156 L19.3906 0 L9.8125 0 L9.8125 72.9062 Z"
         id="glyph8992" />
    </font>
    <defs
       id="defs1">
      <clipPath
         id="clipPath13269"
         clipPathUnits="userSpaceOnUse">
        <path
           id="path13267"
           d="M 0,0 H 662 V 372 H 0 Z"
           inkscape:connector-curvature="0" />
      </clipPath>
      <font
         id="font13319"
         horiz-adv-x="60.009766"
         horiz-origin-x="0"
         horiz-origin-y="0"
         vert-origin-x="45"
         vert-origin-y="90"
         vert-adv-y="90">
        <font-face
           id="font-face13271"
           style="font-style:normal; font-family:SansSerif; font-weight:normal;"
           units-per-em="100"
           descent="23.583984"
           ascent="92.822266" />
        <missing-glyph
           id="missing-glyph13273"
           d="M4.9844 -17.6719 L4.9844 70.5156 L54.9844 70.5156 L54.9844 -17.6719 L4.9844 -17.6719 ZM10.5938 -12.1094 L49.4219 -12.1094 L49.4219 64.8906 L10.5938 64.8906 L10.5938 -12.1094 Z"
           horiz-adv-x="60.009766" />
        <glyph
           id="glyph13275"
           d="M31.7812 66.4062 Q24.1719 66.4062 20.3359 58.9141 Q16.5 51.4219 16.5 36.375 Q16.5 21.3906 20.3359 13.8906 Q24.1719 6.3906 31.7812 6.3906 Q39.4531 6.3906 43.2891 13.8906 Q47.125 21.3906 47.125 36.375 Q47.125 51.4219 43.2891 58.9141 Q39.4531 66.4062 31.7812 66.4062 ZM31.7812 74.2188 Q44.0469 74.2188 50.5156 64.5234 Q56.9844 54.8281 56.9844 36.375 Q56.9844 17.9688 50.5156 8.2734 Q44.0469 -1.4219 31.7812 -1.4219 Q19.5312 -1.4219 13.0625 8.2734 Q6.5938 17.9688 6.5938 36.375 Q6.5938 54.8281 13.0625 64.5234 Q19.5312 74.2188 31.7812 74.2188 Z"
           horiz-adv-x="63.623047"
           unicode="0" />
        <glyph
           id="glyph13277"
           d="M19.1875 8.2969 L53.6094 8.2969 L53.6094 0 L7.3281 0 L7.3281 8.2969 Q12.9375 14.1094 22.6328 23.8984 Q32.3281 33.6875 34.8125 36.5312 Q39.5469 41.8438 41.4297 45.5312 Q43.3125 49.2188 43.3125 52.7812 Q43.3125 58.5938 39.2344 62.2578 Q35.1562 65.9219 28.6094 65.9219 Q23.9688 65.9219 18.8203 64.3125 Q13.6719 62.7031 7.8125 59.4219 L7.8125 69.3906 Q13.7656 71.7812 18.9453 73 Q24.125 74.2188 28.4219 74.2188 Q39.75 74.2188 46.4844 68.5547 Q53.2188 62.8906 53.2188 53.4219 Q53.2188 48.9219 51.5391 44.8984 Q49.8594 40.875 45.4062 35.4062 Q44.1875 33.9844 37.6484 27.2188 Q31.1094 20.4531 19.1875 8.2969 Z"
           horiz-adv-x="63.623047"
           unicode="2" />
        <glyph
           id="glyph13279"
           d="M37.7969 64.3125 L12.8906 25.3906 L37.7969 25.3906 L37.7969 64.3125 ZM35.2031 72.9062 L47.6094 72.9062 L47.6094 25.3906 L58.0156 25.3906 L58.0156 17.1875 L47.6094 17.1875 L47.6094 0 L37.7969 0 L37.7969 17.1875 L4.8906 17.1875 L4.8906 26.7031 L35.2031 72.9062 Z"
           horiz-adv-x="63.623047"
           unicode="4" />
        <glyph
           id="glyph13281"
           d="M33.0156 40.375 Q26.375 40.375 22.4922 35.8359 Q18.6094 31.2969 18.6094 23.3906 Q18.6094 15.5312 22.4922 10.9609 Q26.375 6.3906 33.0156 6.3906 Q39.6562 6.3906 43.5312 10.9609 Q47.4062 15.5312 47.4062 23.3906 Q47.4062 31.2969 43.5312 35.8359 Q39.6562 40.375 33.0156 40.375 ZM52.5938 71.2969 L52.5938 62.3125 Q48.875 64.0625 45.0938 64.9922 Q41.3125 65.9219 37.5938 65.9219 Q27.8281 65.9219 22.6797 59.3281 Q17.5312 52.7344 16.7969 39.4062 Q19.6719 43.6562 24.0234 45.9219 Q28.375 48.1875 33.5938 48.1875 Q44.5781 48.1875 50.9531 41.5234 Q57.3281 34.8594 57.3281 23.3906 Q57.3281 12.1562 50.6875 5.3672 Q44.0469 -1.4219 33.0156 -1.4219 Q20.3594 -1.4219 13.6719 8.2734 Q6.9844 17.9688 6.9844 36.375 Q6.9844 53.6562 15.1875 63.9375 Q23.3906 74.2188 37.2031 74.2188 Q40.9219 74.2188 44.7031 73.4844 Q48.4844 72.75 52.5938 71.2969 Z"
           horiz-adv-x="63.623047"
           unicode="6" />
        <glyph
           id="glyph13283"
           d="M31.7812 34.625 Q24.75 34.625 20.7266 30.8594 Q16.7031 27.0938 16.7031 20.5156 Q16.7031 13.9219 20.7266 10.1562 Q24.75 6.3906 31.7812 6.3906 Q38.8125 6.3906 42.8672 10.1797 Q46.9219 13.9688 46.9219 20.5156 Q46.9219 27.0938 42.8984 30.8594 Q38.875 34.625 31.7812 34.625 ZM21.9219 38.8125 Q15.5781 40.375 12.0391 44.7266 Q8.5 49.0781 8.5 55.3281 Q8.5 64.0625 14.7266 69.1406 Q20.9531 74.2188 31.7812 74.2188 Q42.6719 74.2188 48.875 69.1406 Q55.0781 64.0625 55.0781 55.3281 Q55.0781 49.0781 51.5391 44.7266 Q48 40.375 41.7031 38.8125 Q48.8281 37.1562 52.8047 32.3203 Q56.7812 27.4844 56.7812 20.5156 Q56.7812 9.9062 50.3125 4.2422 Q43.8438 -1.4219 31.7812 -1.4219 Q19.7344 -1.4219 13.2578 4.2422 Q6.7812 9.9062 6.7812 20.5156 Q6.7812 27.4844 10.7891 32.3203 Q14.7969 37.1562 21.9219 38.8125 ZM18.3125 54.3906 Q18.3125 48.7344 21.8516 45.5625 Q25.3906 42.3906 31.7812 42.3906 Q38.1406 42.3906 41.7266 45.5625 Q45.3125 48.7344 45.3125 54.3906 Q45.3125 60.0625 41.7266 63.2344 Q38.1406 66.4062 31.7812 66.4062 Q25.3906 66.4062 21.8516 63.2344 Q18.3125 60.0625 18.3125 54.3906 Z"
           horiz-adv-x="63.623047"
           unicode="8" />
        <glyph
           id="glyph13285"
           d="M12.4062 8.2969 L28.5156 8.2969 L28.5156 63.9219 L10.9844 60.4062 L10.9844 69.3906 L28.4219 72.9062 L38.2812 72.9062 L38.2812 8.2969 L54.3906 8.2969 L54.3906 0 L12.4062 0 L12.4062 8.2969 Z"
           horiz-adv-x="63.623047"
           unicode="1" />
        <glyph
           id="glyph13287"
           d="M30.6094 48.3906 Q23.3906 48.3906 19.1875 42.75 Q14.9844 37.1094 14.9844 27.2969 Q14.9844 17.4844 19.1641 11.8438 Q23.3438 6.2031 30.6094 6.2031 Q37.7969 6.2031 41.9922 11.8672 Q46.1875 17.5312 46.1875 27.2969 Q46.1875 37.0156 41.9922 42.7031 Q37.7969 48.3906 30.6094 48.3906 ZM30.6094 56 Q42.3281 56 49.0234 48.3828 Q55.7188 40.7656 55.7188 27.2969 Q55.7188 13.875 49.0234 6.2266 Q42.3281 -1.4219 30.6094 -1.4219 Q18.8438 -1.4219 12.1797 6.2266 Q5.5156 13.875 5.5156 27.2969 Q5.5156 40.7656 12.1797 48.3828 Q18.8438 56 30.6094 56 Z"
           horiz-adv-x="61.18164"
           unicode="o" />
        <glyph
           id="glyph13289"
           d="M54.8906 33.0156 L54.8906 0 L45.9062 0 L45.9062 32.7188 Q45.9062 40.4844 42.875 44.3359 Q39.8438 48.1875 33.7969 48.1875 Q26.5156 48.1875 22.3125 43.5547 Q18.1094 38.9219 18.1094 30.9062 L18.1094 0 L9.0781 0 L9.0781 54.6875 L18.1094 54.6875 L18.1094 46.1875 Q21.3438 51.125 25.7109 53.5625 Q30.0781 56 35.7969 56 Q45.2188 56 50.0547 50.1719 Q54.8906 44.3438 54.8906 33.0156 Z"
           horiz-adv-x="63.378906"
           unicode="n" />
        <glyph
           id="glyph13291"
           d="M9.4219 54.6875 L18.4062 54.6875 L18.4062 0 L9.4219 0 L9.4219 54.6875 ZM9.4219 75.9844 L18.4062 75.9844 L18.4062 64.5938 L9.4219 64.5938 L9.4219 75.9844 Z"
           horiz-adv-x="27.783203"
           unicode="i" />
        <glyph
           id="glyph13293"
           d="M54.8906 54.6875 L35.1094 28.0781 L55.9062 0 L45.3125 0 L29.3906 21.4844 L13.4844 0 L2.875 0 L24.125 28.6094 L4.6875 54.6875 L15.2812 54.6875 L29.7812 35.2031 L44.2812 54.6875 L54.8906 54.6875 Z"
           horiz-adv-x="59.179688"
           unicode="x" />
        <glyph
           id="glyph13295"
           d="M56.2031 29.5938 L56.2031 25.2031 L14.8906 25.2031 Q15.4844 15.9219 20.4844 11.0625 Q25.4844 6.2031 34.4219 6.2031 Q39.5938 6.2031 44.4531 7.4688 Q49.3125 8.7344 54.1094 11.2812 L54.1094 2.7812 Q49.2656 0.7344 44.1875 -0.3438 Q39.1094 -1.4219 33.8906 -1.4219 Q20.7969 -1.4219 13.1562 6.1953 Q5.5156 13.8125 5.5156 26.8125 Q5.5156 40.2344 12.7656 48.1172 Q20.0156 56 32.3281 56 Q43.3594 56 49.7812 48.8984 Q56.2031 41.7969 56.2031 29.5938 ZM47.2188 32.2344 Q47.125 39.5938 43.0938 43.9922 Q39.0625 48.3906 32.4219 48.3906 Q24.9062 48.3906 20.3906 44.1406 Q15.875 39.8906 15.1875 32.1719 L47.2188 32.2344 Z"
           horiz-adv-x="61.523438"
           unicode="e" />
        <glyph
           id="glyph13297"
           d=""
           horiz-adv-x="31.78711"
           unicode=" " />
        <glyph
           id="glyph13299"
           d="M9.4219 75.9844 L18.4062 75.9844 L18.4062 0 L9.4219 0 L9.4219 75.9844 Z"
           horiz-adv-x="27.783203"
           unicode="l" />
        <glyph
           id="glyph13301"
           d="M34.2812 27.4844 Q23.3906 27.4844 19.1875 25 Q14.9844 22.5156 14.9844 16.5 Q14.9844 11.7188 18.1406 8.9141 Q21.2969 6.1094 26.7031 6.1094 Q34.1875 6.1094 38.7031 11.4062 Q43.2188 16.7031 43.2188 25.4844 L43.2188 27.4844 L34.2812 27.4844 ZM52.2031 31.2031 L52.2031 0 L43.2188 0 L43.2188 8.2969 Q40.1406 3.3281 35.5469 0.9531 Q30.9531 -1.4219 24.3125 -1.4219 Q15.9219 -1.4219 10.9609 3.2969 Q6 8.0156 6 15.9219 Q6 25.1406 12.1797 29.8281 Q18.3594 34.5156 30.6094 34.5156 L43.2188 34.5156 L43.2188 35.4062 Q43.2188 41.6094 39.1406 45 Q35.0625 48.3906 27.6875 48.3906 Q23 48.3906 18.5547 47.2656 Q14.1094 46.1406 10.0156 43.8906 L10.0156 52.2031 Q14.9375 54.1094 19.5781 55.0547 Q24.2188 56 28.6094 56 Q40.4844 56 46.3438 49.8516 Q52.2031 43.7031 52.2031 31.2031 Z"
           horiz-adv-x="61.279297"
           unicode="a" />
        <glyph
           id="glyph13303"
           d="M8.5 21.5781 L8.5 54.6875 L17.4844 54.6875 L17.4844 21.9219 Q17.4844 14.1562 20.5078 10.2734 Q23.5312 6.3906 29.5938 6.3906 Q36.8594 6.3906 41.0859 11.0312 Q45.3125 15.6719 45.3125 23.6875 L45.3125 54.6875 L54.2969 54.6875 L54.2969 0 L45.3125 0 L45.3125 8.4062 Q42.0469 3.4219 37.7266 1 Q33.4062 -1.4219 27.6875 -1.4219 Q18.2656 -1.4219 13.3828 4.4375 Q8.5 10.2969 8.5 21.5781 Z"
           horiz-adv-x="63.378906"
           unicode="u" />
        <glyph
           id="glyph13305"
           d="M18.3125 70.2188 L18.3125 54.6875 L36.8125 54.6875 L36.8125 47.7031 L18.3125 47.7031 L18.3125 18.0156 Q18.3125 11.3281 20.1406 9.4219 Q21.9688 7.5156 27.5938 7.5156 L36.8125 7.5156 L36.8125 0 L27.5938 0 Q17.1875 0 13.2344 3.8828 Q9.2812 7.7656 9.2812 18.0156 L9.2812 47.7031 L2.6875 47.7031 L2.6875 54.6875 L9.2812 54.6875 L9.2812 70.2188 L18.3125 70.2188 Z"
           horiz-adv-x="39.208984"
           unicode="t" />
        <glyph
           id="glyph13307"
           d="M48.7812 52.5938 L48.7812 44.1875 Q44.9688 46.2969 41.1406 47.3438 Q37.3125 48.3906 33.4062 48.3906 Q24.6562 48.3906 19.8203 42.8516 Q14.9844 37.3125 14.9844 27.2969 Q14.9844 17.2812 19.8203 11.7422 Q24.6562 6.2031 33.4062 6.2031 Q37.3125 6.2031 41.1406 7.25 Q44.9688 8.2969 48.7812 10.4062 L48.7812 2.0938 Q45.0156 0.3438 40.9922 -0.5391 Q36.9688 -1.4219 32.4219 -1.4219 Q20.0625 -1.4219 12.7891 6.3438 Q5.5156 14.1094 5.5156 27.2969 Q5.5156 40.6719 12.8672 48.3359 Q20.2188 56 33.0156 56 Q37.1562 56 41.1094 55.1484 Q45.0625 54.2969 48.7812 52.5938 Z"
           horiz-adv-x="54.98047"
           unicode="c" />
        <glyph
           id="glyph13309"
           d="M34.1875 63.1875 L20.7969 26.9062 L47.6094 26.9062 L34.1875 63.1875 ZM28.6094 72.9062 L39.7969 72.9062 L67.5781 0 L57.3281 0 L50.6875 18.7031 L17.8281 18.7031 L11.1875 0 L0.7812 0 L28.6094 72.9062 Z"
           horiz-adv-x="68.4082"
           unicode="A" />
        <glyph
           id="glyph13311"
           d="M45.4062 46.3906 L45.4062 75.9844 L54.3906 75.9844 L54.3906 0 L45.4062 0 L45.4062 8.2031 Q42.5781 3.3281 38.2578 0.9531 Q33.9375 -1.4219 27.875 -1.4219 Q17.9688 -1.4219 11.7422 6.4922 Q5.5156 14.4062 5.5156 27.2969 Q5.5156 40.1875 11.7422 48.0938 Q17.9688 56 27.875 56 Q33.9375 56 38.2578 53.6328 Q42.5781 51.2656 45.4062 46.3906 ZM14.7969 27.2969 Q14.7969 17.3906 18.875 11.75 Q22.9531 6.1094 30.0781 6.1094 Q37.2031 6.1094 41.3047 11.75 Q45.4062 17.3906 45.4062 27.2969 Q45.4062 37.2031 41.3047 42.8438 Q37.2031 48.4844 30.0781 48.4844 Q22.9531 48.4844 18.875 42.8438 Q14.7969 37.2031 14.7969 27.2969 Z"
           horiz-adv-x="63.476562"
           unicode="d" />
        <glyph
           id="glyph13313"
           d="M41.1094 46.2969 Q39.5938 47.1719 37.8125 47.5859 Q36.0312 48 33.8906 48 Q26.2656 48 22.1875 43.0469 Q18.1094 38.0938 18.1094 28.8125 L18.1094 0 L9.0781 0 L9.0781 54.6875 L18.1094 54.6875 L18.1094 46.1875 Q20.9531 51.1719 25.4922 53.5859 Q30.0312 56 36.5312 56 Q37.4531 56 38.5781 55.8828 Q39.7031 55.7656 41.0625 55.5156 L41.1094 46.2969 Z"
           horiz-adv-x="41.11328"
           unicode="r" />
        <glyph
           id="glyph13315"
           d="M44.2812 53.0781 L44.2812 44.5781 Q40.4844 46.5312 36.3828 47.5078 Q32.2812 48.4844 27.875 48.4844 Q21.1875 48.4844 17.8438 46.4375 Q14.5 44.3906 14.5 40.2812 Q14.5 37.1562 16.8906 35.375 Q19.2812 33.5938 26.5156 31.9844 L29.5938 31.2969 Q39.1562 29.25 43.1875 25.5156 Q47.2188 21.7812 47.2188 15.0938 Q47.2188 7.4688 41.1875 3.0234 Q35.1562 -1.4219 24.6094 -1.4219 Q20.2188 -1.4219 15.4531 -0.5625 Q10.6875 0.2969 5.4219 2 L5.4219 11.2812 Q10.4062 8.6875 15.2344 7.3984 Q20.0625 6.1094 24.8125 6.1094 Q31.1562 6.1094 34.5703 8.2812 Q37.9844 10.4531 37.9844 14.4062 Q37.9844 18.0625 35.5234 20.0156 Q33.0625 21.9688 24.7031 23.7812 L21.5781 24.5156 Q13.2344 26.2656 9.5234 29.9062 Q5.8125 33.5469 5.8125 39.8906 Q5.8125 47.6094 11.2812 51.8047 Q16.75 56 26.8125 56 Q31.7812 56 36.1797 55.2734 Q40.5781 54.5469 44.2812 53.0781 Z"
           horiz-adv-x="52.09961"
           unicode="s" />
        <glyph
           id="glyph13317"
           d="M9.8125 72.9062 L24.5156 72.9062 L43.1094 23.2969 L61.8125 72.9062 L76.5156 72.9062 L76.5156 0 L66.8906 0 L66.8906 64.0156 L48.0938 14.0156 L38.1875 14.0156 L19.3906 64.0156 L19.3906 0 L9.8125 0 L9.8125 72.9062 Z"
           horiz-adv-x="86.2793"
           unicode="M" />
      </font>
    </defs>
  </defs>
  <g
     inkscape:groupmode="layer"
     id="layer1"
     inkscape:label="Layer 1"
     style="display:inline;opacity:1"
     transform="translate(-148.33704,-21.694871)">
    <g
       id="g9004"
       style="font-style:normal;font-weight:normal;font-size:medium;font-family:Dialog;color-interpolation:sRGB;fill:#ffffff;fill-opacity:1;stroke:#ffffff;stroke-width:1;stroke-linecap:square;stroke-linejoin:miter;stroke-miterlimit:10;stroke-dasharray:none;stroke-dashoffset:0;stroke-opacity:1;color-rendering:optimizeSpeed;image-rendering:optimizeSpeed;shape-rendering:crispEdges;text-rendering:optimizeSpeed"
       transform="matrix(0.60771981,0,0,0.93994061,148.33704,21.694871)">
      <rect
         id="rect9000"
         style="stroke:none"
         y="0"
         height="372"
         width="662"
         x="0" />
      <path
         id="path9002"
         d="M 191,331 H 494 V 28 H 191 Z"
         style="stroke:none"
         inkscape:connector-curvature="0" />
    </g>
    <g
       id="g9058"
       style="font-style:normal;font-weight:normal;font-size:medium;font-family:Dialog;color-interpolation:linearRGB;fill:#262626;fill-opacity:0.14900004;stroke:#262626;stroke-width:0.63889998;stroke-linecap:butt;stroke-linejoin:round;stroke-miterlimit:10;stroke-dasharray:none;stroke-dashoffset:0;stroke-opacity:0.14900004;color-rendering:optimizeQuality;image-rendering:optimizeQuality;shape-rendering:auto;text-rendering:geometricPrecision"
       transform="translate(-0.61296207,-0.64722297)">
      <line
         id="line9006"
         y1="331"
         x2="191"
         x1="191"
         style="fill:none"
         y2="28" />
      <line
         id="line9008"
         y1="331"
         x2="246.0909"
         x1="246.0909"
         style="fill:none"
         y2="28" />
      <line
         id="line9010"
         y1="331"
         x2="301.18179"
         x1="301.18179"
         style="fill:none"
         y2="28" />
      <line
         id="line9012"
         y1="331"
         x2="356.27271"
         x1="356.27271"
         style="fill:none"
         y2="28" />
      <line
         id="line9014"
         y1="331"
         x2="411.36359"
         x1="411.36359"
         style="fill:none"
         y2="28" />
      <line
         id="line9016"
         y1="331"
         x2="466.45459"
         x1="466.45459"
         style="fill:none"
         y2="28" />
      <line
         id="line9018"
         y1="331"
         x2="191"
         x1="494"
         style="fill:none"
         y2="331" />
      <line
         id="line9020"
         y1="275.90909"
         x2="191"
         x1="494"
         style="fill:none"
         y2="275.90909" />
      <line
         id="line9022"
         y1="220.81821"
         x2="191"
         x1="494"
         style="fill:none"
         y2="220.81821" />
      <line
         id="line9024"
         y1="165.72729"
         x2="191"
         x1="494"
         style="fill:none"
         y2="165.72729" />
      <line
         id="line9026"
         y1="110.6364"
         x2="191"
         x1="494"
         style="fill:none"
         y2="110.6364" />
      <line
         id="line9028"
         y1="55.545502"
         x2="191"
         x1="494"
         style="fill:none"
         y2="55.545502" />
      <line
         id="line9030"
         y2="331"
         style="fill:none;fill-opacity:1;stroke-linecap:square;stroke-opacity:1"
         y1="331"
         x2="494"
         x1="191" />
      <line
         id="line9032"
         y2="28"
         style="fill:none;fill-opacity:1;stroke-linecap:square;stroke-opacity:1"
         y1="28"
         x2="494"
         x1="191" />
      <line
         id="line9034"
         y2="327.97"
         style="fill:none;fill-opacity:1;stroke-linecap:square;stroke-opacity:1"
         y1="331"
         x2="191"
         x1="191" />
      <line
         id="line9036"
         y2="327.97"
         style="fill:none;fill-opacity:1;stroke-linecap:square;stroke-opacity:1"
         y1="331"
         x2="246.0909"
         x1="246.0909" />
      <line
         id="line9038"
         y2="327.97"
         style="fill:none;fill-opacity:1;stroke-linecap:square;stroke-opacity:1"
         y1="331"
         x2="301.18179"
         x1="301.18179" />
      <line
         id="line9040"
         y2="327.97"
         style="fill:none;fill-opacity:1;stroke-linecap:square;stroke-opacity:1"
         y1="331"
         x2="356.27271"
         x1="356.27271" />
      <line
         id="line9042"
         y2="327.97"
         style="fill:none;fill-opacity:1;stroke-linecap:square;stroke-opacity:1"
         y1="331"
         x2="411.36359"
         x1="411.36359" />
      <line
         id="line9044"
         y2="327.97"
         style="fill:none;fill-opacity:1;stroke-linecap:square;stroke-opacity:1"
         y1="331"
         x2="466.45459"
         x1="466.45459" />
      <line
         id="line9046"
         y2="31.030001"
         style="fill:none;fill-opacity:1;stroke-linecap:square;stroke-opacity:1"
         y1="28"
         x2="191"
         x1="191" />
      <line
         id="line9048"
         y2="31.030001"
         style="fill:none;fill-opacity:1;stroke-linecap:square;stroke-opacity:1"
         y1="28"
         x2="246.0909"
         x1="246.0909" />
      <line
         id="line9050"
         y2="31.030001"
         style="fill:none;fill-opacity:1;stroke-linecap:square;stroke-opacity:1"
         y1="28"
         x2="301.18179"
         x1="301.18179" />
      <line
         id="line9052"
         y2="31.030001"
         style="fill:none;fill-opacity:1;stroke-linecap:square;stroke-opacity:1"
         y1="28"
         x2="356.27271"
         x1="356.27271" />
      <line
         id="line9054"
         y2="31.030001"
         style="fill:none;fill-opacity:1;stroke-linecap:square;stroke-opacity:1"
         y1="28"
         x2="411.36359"
         x1="411.36359" />
      <line
         id="line9056"
         y2="31.030001"
         style="fill:none;fill-opacity:1;stroke-linecap:square;stroke-opacity:1"
         y1="28"
         x2="466.45459"
         x1="466.45459" />
    </g>
    <g
       id="g9062"
       style="font-style:normal;font-weight:normal;font-size:13px;font-family:SansSerif;color-interpolation:linearRGB;fill:#262626;fill-opacity:1;stroke:#262626;stroke-width:1;stroke-linecap:square;stroke-linejoin:miter;stroke-miterlimit:10;stroke-dasharray:none;stroke-dashoffset:0;stroke-opacity:1;color-rendering:optimizeQuality;image-rendering:optimizeQuality;shape-rendering:auto;text-rendering:geometricPrecision"
       transform="translate(190.38704,335.46388)">
      <text
         id="text9060"
         style="stroke:none"
         y="13"
         xml:space="preserve"
         x="-4.5">0</text>
    </g>
    <g
       id="g9066"
       style="font-style:normal;font-weight:normal;font-size:13px;font-family:SansSerif;color-interpolation:linearRGB;fill:#262626;fill-opacity:1;stroke:#262626;stroke-width:1;stroke-linecap:square;stroke-linejoin:miter;stroke-miterlimit:10;stroke-dasharray:none;stroke-dashoffset:0;stroke-opacity:1;color-rendering:optimizeQuality;image-rendering:optimizeQuality;shape-rendering:auto;text-rendering:geometricPrecision"
       transform="translate(245.47794,335.46388)">
      <text
         id="text9064"
         style="stroke:none"
         y="13"
         xml:space="preserve"
         x="-4.5">2</text>
    </g>
    <g
       id="g9070"
       style="font-style:normal;font-weight:normal;font-size:13px;font-family:SansSerif;color-interpolation:linearRGB;fill:#262626;fill-opacity:1;stroke:#262626;stroke-width:1;stroke-linecap:square;stroke-linejoin:miter;stroke-miterlimit:10;stroke-dasharray:none;stroke-dashoffset:0;stroke-opacity:1;color-rendering:optimizeQuality;image-rendering:optimizeQuality;shape-rendering:auto;text-rendering:geometricPrecision"
       transform="translate(300.56884,335.46388)">
      <text
         id="text9068"
         style="stroke:none"
         y="13"
         xml:space="preserve"
         x="-4.5">4</text>
    </g>
    <g
       id="g9074"
       style="font-style:normal;font-weight:normal;font-size:13px;font-family:SansSerif;color-interpolation:linearRGB;fill:#262626;fill-opacity:1;stroke:#262626;stroke-width:1;stroke-linecap:square;stroke-linejoin:miter;stroke-miterlimit:10;stroke-dasharray:none;stroke-dashoffset:0;stroke-opacity:1;color-rendering:optimizeQuality;image-rendering:optimizeQuality;shape-rendering:auto;text-rendering:geometricPrecision"
       transform="translate(355.65974,335.46388)">
      <text
         id="text9072"
         style="stroke:none"
         y="13"
         xml:space="preserve"
         x="-4.5">6</text>
    </g>
    <g
       id="g9078"
       style="font-style:normal;font-weight:normal;font-size:13px;font-family:SansSerif;color-interpolation:linearRGB;fill:#262626;fill-opacity:1;stroke:#262626;stroke-width:1;stroke-linecap:square;stroke-linejoin:miter;stroke-miterlimit:10;stroke-dasharray:none;stroke-dashoffset:0;stroke-opacity:1;color-rendering:optimizeQuality;image-rendering:optimizeQuality;shape-rendering:auto;text-rendering:geometricPrecision"
       transform="translate(410.75064,335.46388)">
      <text
         id="text9076"
         style="stroke:none"
         y="13"
         xml:space="preserve"
         x="-4.5">8</text>
    </g>
    <g
       id="g9082"
       style="font-style:normal;font-weight:normal;font-size:13px;font-family:SansSerif;color-interpolation:linearRGB;fill:#262626;fill-opacity:1;stroke:#262626;stroke-width:1;stroke-linecap:square;stroke-linejoin:miter;stroke-miterlimit:10;stroke-dasharray:none;stroke-dashoffset:0;stroke-opacity:1;color-rendering:optimizeQuality;image-rendering:optimizeQuality;shape-rendering:auto;text-rendering:geometricPrecision"
       transform="translate(465.84164,335.46388)">
      <text
         id="text9080"
         style="stroke:none"
         y="13"
         xml:space="preserve"
         x="-8.5">10</text>
    </g>
    <g
       id="g9086"
       style="font-style:normal;font-weight:normal;font-size:14px;font-family:SansSerif;color-interpolation:linearRGB;fill:#262626;fill-opacity:1;stroke:#262626;stroke-width:1;stroke-linecap:square;stroke-linejoin:miter;stroke-miterlimit:10;stroke-dasharray:none;stroke-dashoffset:0;stroke-opacity:1;color-rendering:optimizeQuality;image-rendering:optimizeQuality;shape-rendering:auto;text-rendering:geometricPrecision"
       transform="translate(375.08918,353.74168)">
      <text
         id="text9084"
         style="stroke:none"
         y="13"
         xml:space="preserve"
         x="-52.452145">Input</text>
    </g>
    <g
       id="g9116"
       style="font-style:normal;font-weight:normal;font-size:medium;font-family:Dialog;color-interpolation:linearRGB;fill:#262626;fill-opacity:1;stroke:#262626;stroke-width:0.63889998;stroke-linecap:square;stroke-linejoin:round;stroke-miterlimit:10;stroke-dasharray:none;stroke-dashoffset:0;stroke-opacity:1;color-rendering:optimizeQuality;image-rendering:optimizeQuality;shape-rendering:auto;text-rendering:geometricPrecision"
       transform="translate(-0.61296207,-0.64722297)">
      <line
         id="line9088"
         y1="331"
         x2="191"
         x1="191"
         style="fill:none"
         y2="28" />
      <line
         id="line9090"
         y1="331"
         x2="494"
         x1="494"
         style="fill:none"
         y2="28" />
      <line
         id="line9092"
         y1="331"
         x2="194.03"
         x1="191"
         style="fill:none"
         y2="331" />
      <line
         id="line9094"
         y1="275.90909"
         x2="194.03"
         x1="191"
         style="fill:none"
         y2="275.90909" />
      <line
         id="line9096"
         y1="220.81821"
         x2="194.03"
         x1="191"
         style="fill:none"
         y2="220.81821" />
      <line
         id="line9098"
         y1="165.72729"
         x2="194.03"
         x1="191"
         style="fill:none"
         y2="165.72729" />
      <line
         id="line9100"
         y1="110.6364"
         x2="194.03"
         x1="191"
         style="fill:none"
         y2="110.6364" />
      <line
         id="line9102"
         y1="55.545502"
         x2="194.03"
         x1="191"
         style="fill:none"
         y2="55.545502" />
      <line
         id="line9104"
         y1="331"
         x2="490.97"
         x1="494"
         style="fill:none"
         y2="331" />
      <line
         id="line9106"
         y1="275.90909"
         x2="490.97"
         x1="494"
         style="fill:none"
         y2="275.90909" />
      <line
         id="line9108"
         y1="220.81821"
         x2="490.97"
         x1="494"
         style="fill:none"
         y2="220.81821" />
      <line
         id="line9110"
         y1="165.72729"
         x2="490.97"
         x1="494"
         style="fill:none"
         y2="165.72729" />
      <line
         id="line9112"
         y1="110.6364"
         x2="490.97"
         x1="494"
         style="fill:none"
         y2="110.6364" />
      <line
         id="line9114"
         y1="55.545502"
         x2="490.97"
         x1="494"
         style="fill:none"
         y2="55.545502" />
    </g>
    <g
       id="g9120"
       style="font-style:normal;font-weight:normal;font-size:13px;font-family:SansSerif;color-interpolation:linearRGB;fill:#262626;fill-opacity:1;stroke:#262626;stroke-width:1;stroke-linecap:square;stroke-linejoin:miter;stroke-miterlimit:10;stroke-dasharray:none;stroke-dashoffset:0;stroke-opacity:1;color-rendering:optimizeQuality;image-rendering:optimizeQuality;shape-rendering:auto;text-rendering:geometricPrecision"
       transform="translate(185.27594,330.35278)">
      <text
         id="text9118"
         style="stroke:none"
         y="4.5"
         xml:space="preserve"
         x="-9">0</text>
    </g>
    <g
       id="g9124"
       style="font-style:normal;font-weight:normal;font-size:13px;font-family:SansSerif;color-interpolation:linearRGB;fill:#262626;fill-opacity:1;stroke:#262626;stroke-width:1;stroke-linecap:square;stroke-linejoin:miter;stroke-miterlimit:10;stroke-dasharray:none;stroke-dashoffset:0;stroke-opacity:1;color-rendering:optimizeQuality;image-rendering:optimizeQuality;shape-rendering:auto;text-rendering:geometricPrecision"
       transform="translate(185.27594,275.26188)">
      <text
         id="text9122"
         style="stroke:none"
         y="4.5"
         xml:space="preserve"
         x="-9">2</text>
    </g>
    <g
       id="g9128"
       style="font-style:normal;font-weight:normal;font-size:13px;font-family:SansSerif;color-interpolation:linearRGB;fill:#262626;fill-opacity:1;stroke:#262626;stroke-width:1;stroke-linecap:square;stroke-linejoin:miter;stroke-miterlimit:10;stroke-dasharray:none;stroke-dashoffset:0;stroke-opacity:1;color-rendering:optimizeQuality;image-rendering:optimizeQuality;shape-rendering:auto;text-rendering:geometricPrecision"
       transform="translate(185.27594,220.17098)">
      <text
         id="text9126"
         style="stroke:none"
         y="4.5"
         xml:space="preserve"
         x="-9">4</text>
    </g>
    <g
       id="g9132"
       style="font-style:normal;font-weight:normal;font-size:13px;font-family:SansSerif;color-interpolation:linearRGB;fill:#262626;fill-opacity:1;stroke:#262626;stroke-width:1;stroke-linecap:square;stroke-linejoin:miter;stroke-miterlimit:10;stroke-dasharray:none;stroke-dashoffset:0;stroke-opacity:1;color-rendering:optimizeQuality;image-rendering:optimizeQuality;shape-rendering:auto;text-rendering:geometricPrecision"
       transform="translate(185.27594,165.08008)">
      <text
         id="text9130"
         style="stroke:none"
         y="4.5"
         xml:space="preserve"
         x="-9">6</text>
    </g>
    <g
       id="g9136"
       style="font-style:normal;font-weight:normal;font-size:13px;font-family:SansSerif;color-interpolation:linearRGB;fill:#262626;fill-opacity:1;stroke:#262626;stroke-width:1;stroke-linecap:square;stroke-linejoin:miter;stroke-miterlimit:10;stroke-dasharray:none;stroke-dashoffset:0;stroke-opacity:1;color-rendering:optimizeQuality;image-rendering:optimizeQuality;shape-rendering:auto;text-rendering:geometricPrecision"
       transform="translate(185.27594,109.98918)">
      <text
         id="text9134"
         style="stroke:none"
         y="4.5"
         xml:space="preserve"
         x="-9">8</text>
    </g>
    <g
       id="g9140"
       style="font-style:normal;font-weight:normal;font-size:13px;font-family:SansSerif;color-interpolation:linearRGB;fill:#262626;fill-opacity:1;stroke:#262626;stroke-width:1;stroke-linecap:square;stroke-linejoin:miter;stroke-miterlimit:10;stroke-dasharray:none;stroke-dashoffset:0;stroke-opacity:1;color-rendering:optimizeQuality;image-rendering:optimizeQuality;shape-rendering:auto;text-rendering:geometricPrecision"
       transform="translate(185.27594,54.898277)">
      <text
         id="text9138"
         style="stroke:none"
         y="4.5"
         xml:space="preserve"
         x="-17">10</text>
    </g>
    <g
       id="g9144"
       style="font-style:normal;font-weight:normal;font-size:14px;font-family:SansSerif;color-interpolation:linearRGB;fill:#262626;fill-opacity:1;stroke:#262626;stroke-width:1;stroke-linecap:square;stroke-linejoin:miter;stroke-miterlimit:10;stroke-dasharray:none;stroke-dashoffset:0;stroke-opacity:1;color-rendering:optimizeQuality;image-rendering:optimizeQuality;shape-rendering:auto;text-rendering:geometricPrecision"
       transform="rotate(-90,148.146,-16.296641)">
      <text
         id="text9142"
         style="stroke:none"
         y="-4"
         xml:space="preserve"
         x="-71.5">Output</text>
    </g>
    <g
       id="g9148"
       style="font-style:normal;font-weight:normal;font-size:medium;font-family:Dialog;color-interpolation:linearRGB;fill:#808080;fill-opacity:1;stroke:#808080;stroke-width:2.55559993;stroke-linecap:butt;stroke-linejoin:bevel;stroke-miterlimit:1;stroke-dasharray:8, 8;stroke-dashoffset:0;stroke-opacity:1;color-rendering:optimizeQuality;image-rendering:optimizeQuality;shape-rendering:auto;text-rendering:geometricPrecision"
       transform="translate(-0.61296207,-0.64722297)">
      <path
         id="path9146"
         style="fill:none;fill-rule:evenodd"
         d="m 191,331 2.7798,-2.7798 2.7798,-2.7798 2.7798,-2.7798 2.7799,-2.7799 2.7798,-2.7798 2.7798,-2.7798 2.7798,-2.7798 2.7798,-2.7798 2.7799,-2.7798 2.7798,-2.7799 2.7798,-2.7798 2.7798,-2.7798 2.7798,-2.7798 2.7798,-2.7798 2.7799,-2.7798 2.7798,-2.7799 2.7798,-2.7798 2.7798,-2.7798 2.7798,-2.7798 2.7798,-2.7798 2.7798,-2.7799 2.7799,-2.7798 2.7798,-2.7798 2.7798,-2.7798 2.7798,-2.7798 2.7798,-2.7798 2.7799,-2.7798 2.7798,-2.7799 2.7798,-2.7798 2.7798,-2.7798 2.7798,-2.7798 2.7798,-2.7798 2.7798,-2.7798 2.7799,-2.7799 2.7798,-2.7798 2.7798,-2.7798 2.7798,-2.7798 2.7798,-2.7798 2.7798,-2.7798 2.7799,-2.7799 2.7798,-2.7798 2.7798,-2.7798 2.7798,-2.7798 2.7798,-2.7798 2.7798,-2.7799 2.7799,-2.7798 2.7798,-2.7798 2.7798,-2.7798 2.7798,-2.7798 2.7798,-2.7798 2.7798,-2.7798 2.7798,-2.7799 2.7799,-2.7798 2.7798,-2.7798 2.7798,-2.7798 2.7798,-2.7798 2.7799,-2.7798 2.7798,-2.7799 2.7798,-2.7798 2.7798,-2.7798 2.7798,-2.7798 2.7798,-2.7798 2.7798,-2.7798 2.7799,-2.7798 2.7798,-2.7799 2.7798,-2.7798 2.7798,-2.7798 2.7798,-2.7798 2.7798,-2.7798 2.7799,-2.7798 2.7798,-2.7799 2.7798,-2.7798 2.7798,-2.7798 2.7798,-2.7798 2.7798,-2.7798 2.7799,-2.7799 2.7798,-2.7798 2.7798,-2.7798 2.7798,-2.7798 2.7798,-2.7798 2.7798,-2.7798 2.7798,-2.7799 2.7799,-2.7798 2.7798,-2.7798 2.7798,-2.7798 2.7798,-2.7798 2.7798,-2.7798 2.7798,-2.7798 2.7799,-2.7799 2.7798,-2.7798 2.7798,-2.7798 2.7798,-2.7798 2.7798,-2.7798 2.7799,-2.7798 2.7798,-2.7799 2.7798,-2.7798 2.7798,-2.7798 2.7798,-2.7798 2.7798,-2.7798 2.7799,-2.7799 2.7798,-2.7798 2.7798,-2.7798 2.7798,-2.7798 2.7798,-2.7798 2.7798,-2.7798 2.7799,-2.7798 2.7798,-2.7799 2.7798,-2.7798 L 494,28"
         inkscape:connector-curvature="0" />
    </g>
    <path
       style="font-style:normal;font-weight:normal;font-size:12px;font-family:Dialog;color-interpolation:auto;fill:none;fill-opacity:1;stroke:#000000;stroke-width:1.20283353;stroke-linecap:butt;stroke-linejoin:miter;stroke-miterlimit:10;stroke-dasharray:3.6085006, 3.6085006;stroke-dashoffset:0;stroke-opacity:1;color-rendering:auto;image-rendering:auto;shape-rendering:auto;text-rendering:auto"
       d="M 190.38704,109.98918 H 514.59288"
       id="path9185"
       inkscape:connector-curvature="0" />
    <path
       style="font-style:normal;font-weight:normal;font-size:12px;font-family:Dialog;color-interpolation:auto;fill:none;fill-opacity:1;stroke:#000000;stroke-width:1.20283353;stroke-linecap:butt;stroke-linejoin:miter;stroke-miterlimit:10;stroke-dasharray:3.6085006, 3.6085006;stroke-dashoffset:0;stroke-opacity:1;color-rendering:auto;image-rendering:auto;shape-rendering:auto;text-rendering:auto"
       d="M 190.38704,275.26188 H 514.59288"
       id="path9185-6"
       inkscape:connector-curvature="0" />
    <text
       xml:space="preserve"
       style="font-style:normal;font-weight:normal;font-size:40px;line-height:1.25;font-family:sans-serif;letter-spacing:0px;word-spacing:0px;color-interpolation:auto;fill:#000000;fill-opacity:1;stroke:none;stroke-width:1;stroke-linecap:square;stroke-linejoin:miter;stroke-miterlimit:10;stroke-dasharray:none;stroke-dashoffset:0;stroke-opacity:1;color-rendering:auto;image-rendering:auto;shape-rendering:auto;text-rendering:auto"
       x="517.02625"
       y="115.62378"
       id="text9204"><tspan
         sodipodi:role="line"
         id="tspan9202"
         x="517.02625"
         y="115.62378"
         style="font-size:16px">b=8</tspan></text>
    <text
       xml:space="preserve"
       style="font-style:normal;font-weight:normal;font-size:40px;line-height:1.25;font-family:sans-serif;letter-spacing:0px;word-spacing:0px;color-interpolation:auto;fill:#000000;fill-opacity:1;stroke:none;stroke-width:1;stroke-linecap:square;stroke-linejoin:miter;stroke-miterlimit:10;stroke-dasharray:none;stroke-dashoffset:0;stroke-opacity:1;color-rendering:auto;image-rendering:auto;shape-rendering:auto;text-rendering:auto"
       x="517.76971"
       y="279.46558"
       id="text9208"><tspan
         sodipodi:role="line"
         id="tspan9206"
         x="517.76971"
         y="279.46558"
         style="font-size:16px">a=2</tspan></text>
    <text
       xml:space="preserve"
       style="font-style:normal;font-weight:normal;font-size:40px;line-height:1.25;font-family:sans-serif;letter-spacing:0px;word-spacing:0px;color-interpolation:auto;fill:#000000;fill-opacity:1;stroke:none;stroke-width:1;stroke-linecap:square;stroke-linejoin:miter;stroke-miterlimit:10;stroke-dasharray:none;stroke-dashoffset:0;stroke-opacity:1;color-rendering:auto;image-rendering:auto;shape-rendering:auto;text-rendering:auto"
       x="408.46536"
       y="129.14799"
       id="text9204-7-3"><tspan
         sodipodi:role="line"
         id="tspan9202-5-5"
         x="408.46536"
         y="129.14799"
         style="font-size:16px">(b,b)</tspan></text>
    <text
       xml:space="preserve"
       style="font-style:normal;font-weight:normal;font-size:40px;line-height:1.25;font-family:sans-serif;letter-spacing:0px;word-spacing:0px;color-interpolation:auto;fill:#000000;fill-opacity:1;stroke:none;stroke-width:1;stroke-linecap:square;stroke-linejoin:miter;stroke-miterlimit:10;stroke-dasharray:none;stroke-dashoffset:0;stroke-opacity:1;color-rendering:auto;image-rendering:auto;shape-rendering:auto;text-rendering:auto"
       x="211.45226"
       y="264.90088"
       id="text9204-7-6-6"><tspan
         sodipodi:role="line"
         id="tspan9202-5-0-1"
         x="211.45226"
         y="264.90088"
         style="font-size:16px">(a,a)</tspan></text>
    <text
       xml:space="preserve"
       style="font-style:normal;font-weight:normal;font-size:40px;line-height:1.25;font-family:sans-serif;letter-spacing:0px;word-spacing:0px;display:inline;opacity:1;color-interpolation:auto;fill:#808080;fill-opacity:1;stroke:none;stroke-width:1;stroke-linecap:square;stroke-linejoin:miter;stroke-miterlimit:10;stroke-dasharray:none;stroke-dashoffset:0;stroke-opacity:1;color-rendering:auto;image-rendering:auto;shape-rendering:auto;text-rendering:auto"
       x="422.14267"
       y="43.83326"
       id="text12674-3"><tspan
         sodipodi:role="line"
         x="422.14267"
         y="43.83326"
         style="font-size:13.3333px;fill:#808080;fill-opacity:1"
         id="tspan13601">identity</tspan></text>
  </g>
  <g
     inkscape:groupmode="layer"
     id="layer2"
     inkscape:label="Layer 2"
     style="display:inline"
     transform="translate(-148.33704,-21.694871)">
    <path
       style="fill:none;stroke:#0072bd;stroke-width:2.55599999;stroke-linecap:butt;stroke-linejoin:miter;stroke-miterlimit:10;stroke-dasharray:none;stroke-opacity:1"
       d="m 190.38704,275.26186 h 55.14129 l 165.45614,-165.53275 82.40257,0.26007"
       id="path13729"
       inkscape:connector-curvature="0"
       sodipodi:nodetypes="cccc" />
    <circle
       style="font-style:normal;font-weight:normal;font-size:12px;font-family:Dialog;display:inline;opacity:1;color-interpolation:auto;fill:none;fill-opacity:1;stroke:#000000;stroke-width:1;stroke-linecap:square;stroke-linejoin:miter;stroke-miterlimit:10;stroke-dasharray:none;stroke-dashoffset:0;stroke-opacity:1;color-rendering:auto;image-rendering:auto;shape-rendering:auto;text-rendering:auto"
       id="path9162"
       cx="410.78632"
       cy="109.82164"
       r="4.5510178" />
    <circle
       style="font-style:normal;font-weight:normal;font-size:12px;font-family:Dialog;display:inline;opacity:1;color-interpolation:auto;fill:none;fill-opacity:1;stroke:#000000;stroke-width:1;stroke-linecap:square;stroke-linejoin:miter;stroke-miterlimit:10;stroke-dasharray:none;stroke-dashoffset:0;stroke-opacity:1;color-rendering:auto;image-rendering:auto;shape-rendering:auto;text-rendering:auto"
       id="path9162-3-9-3"
       cx="245.57645"
       cy="274.98206"
       r="4.5510178" />
  </g>
</svg>
